playsound minecraft:entity.axolotl.hurt master @s ~ ~ ~ 1 0.5 0
tellraw @s ["",{"text":"\n\n\n\n\n"},{"text":"<Prohl>","bold":true,"underlined":true,"color":"gold"},{"text":"\n"},{"text":"He encontrado estas piedras dentro de las muestras... No se para que sirvan pero se ven valiosas...","color":"yellow"},{"text":"\n "}]
scoreboard players set @s interaction_villager_lab 3
function npc:giveitem/titanitefragment