{
  "criteria": {
    "dummy": {
      "trigger": "impossible"
    }
  },
  "display": {
    "icon": {
      "item": "minecraft:heart_of_the_sea"
    },
    "title": "Sistema de Ondas",
    "description": "unknown ha encontrado tu conexion con el sistema de ondas y busca tu ayuda",
    "background": "minecraft:textures/block/blue_shulker_box.png",
    "announce_to_chat": false,
    "frame": "challenge"
  }
}