{
  "criteria": {
    "dummy": {
      "trigger": "impossible"
    }
  },
  "parent": "npc:forge/pickaxe_5",
  "display": {
    "icon": {
      "item": "minecraft:diamond_pickaxe"
    },
    "title": "Nivel 6",
    "description": "Mejora el pico al nivel 6",
    "announce_to_chat": false,
    "frame": "goal",
    "hidden": false
  }
}