{
  "criteria": {
    "interact": {
      "trigger": "minecraft:player_interacted_with_entity",
      "conditions": {
        "entity": {
          "type": "minecraft:villager",
          "nbt": "{Tags:[\"villager_monk\"]}"
        }
      }
    }
  },
  "rewards": {
    "function": "npc:interaction/villager_monk/index"
  }
}