{
  "criteria": {
    "dummy": {
      "trigger": "impossible"
    }
  },
  "parent": "npc:lab/root",
  "display": {
    "icon": {
      "item": "minecraft:cobbled_deepslate"
    },
    "title": "Muestras",
    "description": "Has colaborado con muestras de roca al laboratorio",
    "announce_to_chat": false,
    "frame": "goal",
    "hidden": false
  }
}